[
    {
    "firstname":"Test1",
    "surname":"Data1", "contact_number":"+44 000 000 000", "email":"test1.data1@test.com"
    },
    {
    "firstname":"Test2",
    "surname":"Data2", "contact_number":"+44 000 000 000", "email":"test2.data2@test.com"
    }
]